{
    "data": [
        {
            "id": "lm1pyy",
            "url": "https://wallhaven.cc/w/lm1pyy",
            "short_url": "https://whvn.cc/lm1pyy",
            "views": 22,
            "favorites": 0,
            "source": "",
            "purity": "sketchy",
            "category": "anime",
            "dimension_x": 3840,
            "dimension_y": 2160,
            "resolution": "3840x2160",
            "ratio": "1.78",
            "file_size": 5885715,
            "file_type": "image/png",
            "created_at": "2020-06-19 14:38:45",
            "colors": [
                "#424153",
                "#999999",
                "#cccccc",
                "#abbcda",
                "#996633"
            ],
            "path": "https://w.wallhaven.cc/full/lm/wallhaven-lm1pyy.png",
            "thumbs": {
                "large": "https://th.wallhaven.cc/lg/lm/lm1pyy.jpg",
                "original": "https://th.wallhaven.cc/orig/lm/lm1pyy.jpg",
                "small": "https://th.wallhaven.cc/small/lm/lm1pyy.jpg"
            }
        },
        {
            "id": "ympoqx",
            "url": "https://wallhaven.cc/w/ympoqx",
            "short_url": "https://whvn.cc/ympoqx",
            "views": 26,
            "favorites": 0,
            "source": "",
            "purity": "sfw",
            "category": "general",
            "dimension_x": 4032,
            "dimension_y": 3024,
            "resolution": "4032x3024",
            "ratio": "1.33",
            "file_size": 2979661,
            "file_type": "image/jpeg",
            "created_at": "2020-06-19 14:27:31",
            "colors": [
                "#cc3333",
                "#996633",
                "#999999",
                "#cccccc",
                "#000000"
            ],
            "path": "https://w.wallhaven.cc/full/ym/wallhaven-ympoqx.jpg",
            "thumbs": {
                "large": "https://th.wallhaven.cc/lg/ym/ympoqx.jpg",
                "original": "https://th.wallhaven.cc/orig/ym/ympoqx.jpg",
                "small": "https://th.wallhaven.cc/small/ym/ympoqx.jpg"
            }
        },
        {
            "id": "391jq9",
            "url": "https://wallhaven.cc/w/391jq9",
            "short_url": "https://whvn.cc/391jq9",
            "views": 22,
            "favorites": 0,
            "source": "",
            "purity": "sfw",
            "category": "general",
            "dimension_x": 4032,
            "dimension_y": 3024,
            "resolution": "4032x3024",
            "ratio": "1.33",
            "file_size": 3038902,
            "file_type": "image/jpeg",
            "created_at": "2020-06-19 14:20:01",
            "colors": [
                "#999999",
                "#996633",
                "#424153",
                "#000000",
                "#663300"
            ],
            "path": "https://w.wallhaven.cc/full/39/wallhaven-391jq9.jpg",
            "thumbs": {
                "large": "https://th.wallhaven.cc/lg/39/391jq9.jpg",
                "original": "https://th.wallhaven.cc/orig/39/391jq9.jpg",
                "small": "https://th.wallhaven.cc/small/39/391jq9.jpg"
            }
        },
        {
            "id": "6kr6dw",
            "url": "https://wallhaven.cc/w/6kr6dw",
            "short_url": "https://whvn.cc/6kr6dw",
            "views": 31,
            "favorites": 0,
            "source": "",
            "purity": "sfw",
            "category": "general",
            "dimension_x": 1920,
            "dimension_y": 1080,
            "resolution": "1920x1080",
            "ratio": "1.78",
            "file_size": 926364,
            "file_type": "image/jpeg",
            "created_at": "2020-06-19 13:50:19",
            "colors": [
                "#424153",
                "#000000",
                "#999999",
                "#cccccc",
                "#996633"
            ],
            "path": "https://w.wallhaven.cc/full/6k/wallhaven-6kr6dw.jpg",
            "thumbs": {
                "large": "https://th.wallhaven.cc/lg/6k/6kr6dw.jpg",
                "original": "https://th.wallhaven.cc/orig/6k/6kr6dw.jpg",
                "small": "https://th.wallhaven.cc/small/6k/6kr6dw.jpg"
            }
        },
        {
            "id": "g8egpq",
            "url": "https://wallhaven.cc/w/g8egpq",
            "short_url": "https://whvn.cc/g8egpq",
            "views": 13,
            "favorites": 0,
            "source": "",
            "purity": "sfw",
            "category": "general",
            "dimension_x": 1920,
            "dimension_y": 1080,
            "resolution": "1920x1080",
            "ratio": "1.78",
            "file_size": 882899,
            "file_type": "image/jpeg",
            "created_at": "2020-06-19 13:50:19",
            "colors": [
                "#424153",
                "#000000",
                "#999999",
                "#cccccc",
                "#abbcda"
            ],
            "path": "https://w.wallhaven.cc/full/g8/wallhaven-g8egpq.jpg",
            "thumbs": {
                "large": "https://th.wallhaven.cc/lg/g8/g8egpq.jpg",
                "original": "https://th.wallhaven.cc/orig/g8/g8egpq.jpg",
                "small": "https://th.wallhaven.cc/small/g8/g8egpq.jpg"
            }
        },
        {
            "id": "oxr85l",
            "url": "https://wallhaven.cc/w/oxr85l",
            "short_url": "https://whvn.cc/oxr85l",
            "views": 24,
            "favorites": 0,
            "source": "",
            "purity": "sfw",
            "category": "general",
            "dimension_x": 1920,
            "dimension_y": 1080,
            "resolution": "1920x1080",
            "ratio": "1.78",
            "file_size": 839060,
            "file_type": "image/jpeg",
            "created_at": "2020-06-19 13:50:19",
            "colors": [
                "#000000",
                "#424153",
                "#999999",
                "#cccccc",
                "#996633"
            ],
            "path": "https://w.wallhaven.cc/full/ox/wallhaven-oxr85l.jpg",
            "thumbs": {
                "large": "https://th.wallhaven.cc/lg/ox/oxr85l.jpg",
                "original": "https://th.wallhaven.cc/orig/ox/oxr85l.jpg",
                "small": "https://th.wallhaven.cc/small/ox/oxr85l.jpg"
            }
        },
        {
            "id": "7357pe",
            "url": "https://wallhaven.cc/w/7357pe",
            "short_url": "https://whvn.cc/7357pe",
            "views": 21,
            "favorites": 0,
            "source": "",
            "purity": "sfw",
            "category": "general",
            "dimension_x": 1920,
            "dimension_y": 1080,
            "resolution": "1920x1080",
            "ratio": "1.78",
            "file_size": 1153984,
            "file_type": "image/jpeg",
            "created_at": "2020-06-19 13:50:19",
            "colors": [
                "#424153",
                "#999999",
                "#000000",
                "#996633",
                "#cccccc"
            ],
            "path": "https://w.wallhaven.cc/full/73/wallhaven-7357pe.jpg",
            "thumbs": {
                "large": "https://th.wallhaven.cc/lg/73/7357pe.jpg",
                "original": "https://th.wallhaven.cc/orig/73/7357pe.jpg",
                "small": "https://th.wallhaven.cc/small/73/7357pe.jpg"
            }
        },
        {
            "id": "j5z7xw",
            "url": "https://wallhaven.cc/w/j5z7xw",
            "short_url": "https://whvn.cc/j5z7xw",
            "views": 23,
            "favorites": 0,
            "source": "",
            "purity": "sfw",
            "category": "general",
            "dimension_x": 1920,
            "dimension_y": 1080,
            "resolution": "1920x1080",
            "ratio": "1.78",
            "file_size": 746167,
            "file_type": "image/jpeg",
            "created_at": "2020-06-19 13:50:19",
            "colors": [
                "#000000",
                "#424153",
                "#cccccc",
                "#999999",
                "#996633"
            ],
            "path": "https://w.wallhaven.cc/full/j5/wallhaven-j5z7xw.jpg",
            "thumbs": {
                "large": "https://th.wallhaven.cc/lg/j5/j5z7xw.jpg",
                "original": "https://th.wallhaven.cc/orig/j5/j5z7xw.jpg",
                "small": "https://th.wallhaven.cc/small/j5/j5z7xw.jpg"
            }
        },
        {
            "id": "2eql8m",
            "url": "https://wallhaven.cc/w/2eql8m",
            "short_url": "https://whvn.cc/2eql8m",
            "views": 126,
            "favorites": 8,
            "source": "",
            "purity": "sfw",
            "category": "general",
            "dimension_x": 3840,
            "dimension_y": 1535,
            "resolution": "3840x1535",
            "ratio": "2.5",
            "file_size": 1043855,
            "file_type": "image/jpeg",
            "created_at": "2020-06-19 13:08:12",
            "colors": [
                "#424153",
                "#000000",
                "#999999",
                "#996633",
                "#e7d8b1"
            ],
            "path": "https://w.wallhaven.cc/full/2e/wallhaven-2eql8m.jpg",
            "thumbs": {
                "large": "https://th.wallhaven.cc/lg/2e/2eql8m.jpg",
                "original": "https://th.wallhaven.cc/orig/2e/2eql8m.jpg",
                "small": "https://th.wallhaven.cc/small/2e/2eql8m.jpg"
            }
        },
        {
            "id": "xlmg8d",
            "url": "https://wallhaven.cc/w/xlmg8d",
            "short_url": "https://whvn.cc/xlmg8d",
            "views": 249,
            "favorites": 10,
            "source": "",
            "purity": "sfw",
            "category": "general",
            "dimension_x": 3840,
            "dimension_y": 2160,
            "resolution": "3840x2160",
            "ratio": "1.78",
            "file_size": 14249335,
            "file_type": "image/png",
            "created_at": "2020-06-19 12:20:07",
            "colors": [
                "#996633",
                "#999999",
                "#424153",
                "#663300",
                "#cccccc"
            ],
            "path": "https://w.wallhaven.cc/full/xl/wallhaven-xlmg8d.png",
            "thumbs": {
                "large": "https://th.wallhaven.cc/lg/xl/xlmg8d.jpg",
                "original": "https://th.wallhaven.cc/orig/xl/xlmg8d.jpg",
                "small": "https://th.wallhaven.cc/small/xl/xlmg8d.jpg"
            }
        },
        {
            "id": "g8eg77",
            "url": "https://wallhaven.cc/w/g8eg77",
            "short_url": "https://whvn.cc/g8eg77",
            "views": 64,
            "favorites": 2,
            "source": "",
            "purity": "sfw",
            "category": "general",
            "dimension_x": 3000,
            "dimension_y": 2000,
            "resolution": "3000x2000",
            "ratio": "1.5",
            "file_size": 2065465,
            "file_type": "image/jpeg",
            "created_at": "2020-06-19 11:07:32",
            "colors": [
                "#ff9900",
                "#f5dd01",
                "#cc0000",
                "#e7d8b1",
                "#424153"
            ],
            "path": "https://w.wallhaven.cc/full/g8/wallhaven-g8eg77.jpg",
            "thumbs": {
                "large": "https://th.wallhaven.cc/lg/g8/g8eg77.jpg",
                "original": "https://th.wallhaven.cc/orig/g8/g8eg77.jpg",
                "small": "https://th.wallhaven.cc/small/g8/g8eg77.jpg"
            }
        },
        {
            "id": "vg6lg8",
            "url": "https://wallhaven.cc/w/vg6lg8",
            "short_url": "https://whvn.cc/vg6lg8",
            "views": 39,
            "favorites": 0,
            "source": "",
            "purity": "sfw",
            "category": "general",
            "dimension_x": 2000,
            "dimension_y": 1000,
            "resolution": "2000x1000",
            "ratio": "2",
            "file_size": 4014739,
            "file_type": "image/png",
            "created_at": "2020-06-19 10:45:27",
            "colors": [
                "#000000",
                "#660000",
                "#996633",
                "#663300",
                "#cc6633"
            ],
            "path": "https://w.wallhaven.cc/full/vg/wallhaven-vg6lg8.png",
            "thumbs": {
                "large": "https://th.wallhaven.cc/lg/vg/vg6lg8.jpg",
                "original": "https://th.wallhaven.cc/orig/vg/vg6lg8.jpg",
                "small": "https://th.wallhaven.cc/small/vg/vg6lg8.jpg"
            }
        },
        {
            "id": "2eqlem",
            "url": "https://wallhaven.cc/w/2eqlem",
            "short_url": "https://whvn.cc/2eqlem",
            "views": 85,
            "favorites": 3,
            "source": "",
            "purity": "sfw",
            "category": "anime",
            "dimension_x": 3840,
            "dimension_y": 2160,
            "resolution": "3840x2160",
            "ratio": "1.78",
            "file_size": 5865996,
            "file_type": "image/png",
            "created_at": "2020-06-19 10:41:47",
            "colors": [
                "#e7d8b1",
                "#424153",
                "#663300",
                "#999999",
                "#996633"
            ],
            "path": "https://w.wallhaven.cc/full/2e/wallhaven-2eqlem.png",
            "thumbs": {
                "large": "https://th.wallhaven.cc/lg/2e/2eqlem.jpg",
                "original": "https://th.wallhaven.cc/orig/2e/2eqlem.jpg",
                "small": "https://th.wallhaven.cc/small/2e/2eqlem.jpg"
            }
        },
        {
            "id": "dg7y5j",
            "url": "https://wallhaven.cc/w/dg7y5j",
            "short_url": "https://whvn.cc/dg7y5j",
            "views": 84,
            "favorites": 1,
            "source": "",
            "purity": "sfw",
            "category": "general",
            "dimension_x": 8192,
            "dimension_y": 4320,
            "resolution": "8192x4320",
            "ratio": "1.9",
            "file_size": 12935470,
            "file_type": "image/jpeg",
            "created_at": "2020-06-19 08:32:23",
            "colors": [
                "#cc0000",
                "#000000",
                "#660000",
                "#990000",
                "#cc6633"
            ],
            "path": "https://w.wallhaven.cc/full/dg/wallhaven-dg7y5j.jpg",
            "thumbs": {
                "large": "https://th.wallhaven.cc/lg/dg/dg7y5j.jpg",
                "original": "https://th.wallhaven.cc/orig/dg/dg7y5j.jpg",
                "small": "https://th.wallhaven.cc/small/dg/dg7y5j.jpg"
            }
        },
        {
            "id": "96lp5w",
            "url": "https://wallhaven.cc/w/96lp5w",
            "short_url": "https://whvn.cc/96lp5w",
            "views": 55,
            "favorites": 1,
            "source": "",
            "purity": "sfw",
            "category": "general",
            "dimension_x": 8192,
            "dimension_y": 4320,
            "resolution": "8192x4320",
            "ratio": "1.9",
            "file_size": 12782315,
            "file_type": "image/jpeg",
            "created_at": "2020-06-19 08:26:02",
            "colors": [
                "#000000",
                "#424153",
                "#333399",
                "#0066cc",
                "#e7d8b1"
            ],
            "path": "https://w.wallhaven.cc/full/96/wallhaven-96lp5w.jpg",
            "thumbs": {
                "large": "https://th.wallhaven.cc/lg/96/96lp5w.jpg",
                "original": "https://th.wallhaven.cc/orig/96/96lp5w.jpg",
                "small": "https://th.wallhaven.cc/small/96/96lp5w.jpg"
            }
        },
        {
            "id": "83ymxj",
            "url": "https://wallhaven.cc/w/83ymxj",
            "short_url": "https://whvn.cc/83ymxj",
            "views": 71,
            "favorites": 1,
            "source": "",
            "purity": "sfw",
            "category": "general",
            "dimension_x": 8192,
            "dimension_y": 4320,
            "resolution": "8192x4320",
            "ratio": "1.9",
            "file_size": 10841939,
            "file_type": "image/jpeg",
            "created_at": "2020-06-19 08:18:42",
            "colors": [
                "#000000",
                "#424153",
                "#e7d8b1",
                "#999999",
                "#ffffff"
            ],
            "path": "https://w.wallhaven.cc/full/83/wallhaven-83ymxj.jpg",
            "thumbs": {
                "large": "https://th.wallhaven.cc/lg/83/83ymxj.jpg",
                "original": "https://th.wallhaven.cc/orig/83/83ymxj.jpg",
                "small": "https://th.wallhaven.cc/small/83/83ymxj.jpg"
            }
        },
        {
            "id": "p8dz2j",
            "url": "https://wallhaven.cc/w/p8dz2j",
            "short_url": "https://whvn.cc/p8dz2j",
            "views": 210,
            "favorites": 1,
            "source": "",
            "purity": "sfw",
            "category": "general",
            "dimension_x": 1920,
            "dimension_y": 1080,
            "resolution": "1920x1080",
            "ratio": "1.78",
            "file_size": 3127767,
            "file_type": "image/png",
            "created_at": "2020-06-19 08:03:37",
            "colors": [
                "#000000",
                "#424153",
                "#660000",
                "#990000",
                "#999999"
            ],
            "path": "https://w.wallhaven.cc/full/p8/wallhaven-p8dz2j.png",
            "thumbs": {
                "large": "https://th.wallhaven.cc/lg/p8/p8dz2j.jpg",
                "original": "https://th.wallhaven.cc/orig/p8/p8dz2j.jpg",
                "small": "https://th.wallhaven.cc/small/p8/p8dz2j.jpg"
            }
        },
        {
            "id": "vg6lx8",
            "url": "https://wallhaven.cc/w/vg6lx8",
            "short_url": "https://whvn.cc/vg6lx8",
            "views": 129,
            "favorites": 1,
            "source": "",
            "purity": "sfw",
            "category": "general",
            "dimension_x": 1920,
            "dimension_y": 1282,
            "resolution": "1920x1282",
            "ratio": "1.5",
            "file_size": 794221,
            "file_type": "image/jpeg",
            "created_at": "2020-06-19 06:26:56",
            "colors": [
                "#424153",
                "#000000",
                "#996633",
                "#663300",
                "#999999"
            ],
            "path": "https://w.wallhaven.cc/full/vg/wallhaven-vg6lx8.jpg",
            "thumbs": {
                "large": "https://th.wallhaven.cc/lg/vg/vg6lx8.jpg",
                "original": "https://th.wallhaven.cc/orig/vg/vg6lx8.jpg",
                "small": "https://th.wallhaven.cc/small/vg/vg6lx8.jpg"
            }
        },
        {
            "id": "2eqlgm",
            "url": "https://wallhaven.cc/w/2eqlgm",
            "short_url": "https://whvn.cc/2eqlgm",
            "views": 170,
            "favorites": 8,
            "source": "",
            "purity": "sfw",
            "category": "general",
            "dimension_x": 2048,
            "dimension_y": 1365,
            "resolution": "2048x1365",
            "ratio": "1.5",
            "file_size": 1181161,
            "file_type": "image/jpeg",
            "created_at": "2020-06-19 06:25:13",
            "colors": [
                "#999999",
                "#424153",
                "#cccccc",
                "#996633",
                "#e7d8b1"
            ],
            "path": "https://w.wallhaven.cc/full/2e/wallhaven-2eqlgm.jpg",
            "thumbs": {
                "large": "https://th.wallhaven.cc/lg/2e/2eqlgm.jpg",
                "original": "https://th.wallhaven.cc/orig/2e/2eqlgm.jpg",
                "small": "https://th.wallhaven.cc/small/2e/2eqlgm.jpg"
            }
        },
        {
            "id": "wy7jo7",
            "url": "https://wallhaven.cc/w/wy7jo7",
            "short_url": "https://whvn.cc/wy7jo7",
            "views": 171,
            "favorites": 3,
            "source": "",
            "purity": "sfw",
            "category": "general",
            "dimension_x": 2048,
            "dimension_y": 1365,
            "resolution": "2048x1365",
            "ratio": "1.5",
            "file_size": 348781,
            "file_type": "image/jpeg",
            "created_at": "2020-06-19 06:24:26",
            "colors": [
                "#000000",
                "#996633",
                "#336600",
                "#666600",
                "#663300"
            ],
            "path": "https://w.wallhaven.cc/full/wy/wallhaven-wy7jo7.jpg",
            "thumbs": {
                "large": "https://th.wallhaven.cc/lg/wy/wy7jo7.jpg",
                "original": "https://th.wallhaven.cc/orig/wy/wy7jo7.jpg",
                "small": "https://th.wallhaven.cc/small/wy/wy7jo7.jpg"
            }
        },
        {
            "id": "dg7yxj",
            "url": "https://wallhaven.cc/w/dg7yxj",
            "short_url": "https://whvn.cc/dg7yxj",
            "views": 135,
            "favorites": 1,
            "source": "",
            "purity": "sfw",
            "category": "general",
            "dimension_x": 2048,
            "dimension_y": 1365,
            "resolution": "2048x1365",
            "ratio": "1.5",
            "file_size": 1012618,
            "file_type": "image/jpeg",
            "created_at": "2020-06-19 06:23:45",
            "colors": [
                "#424153",
                "#336600",
                "#000000",
                "#666600",
                "#999999"
            ],
            "path": "https://w.wallhaven.cc/full/dg/wallhaven-dg7yxj.jpg",
            "thumbs": {
                "large": "https://th.wallhaven.cc/lg/dg/dg7yxj.jpg",
                "original": "https://th.wallhaven.cc/orig/dg/dg7yxj.jpg",
                "small": "https://th.wallhaven.cc/small/dg/dg7yxj.jpg"
            }
        },
        {
            "id": "r2l131",
            "url": "https://wallhaven.cc/w/r2l131",
            "short_url": "https://whvn.cc/r2l131",
            "views": 335,
            "favorites": 8,
            "source": "",
            "purity": "sfw",
            "category": "general",
            "dimension_x": 2500,
            "dimension_y": 1732,
            "resolution": "2500x1732",
            "ratio": "1.44",
            "file_size": 2004200,
            "file_type": "image/jpeg",
            "created_at": "2020-06-19 06:22:53",
            "colors": [
                "#424153",
                "#000000",
                "#999999",
                "#333399",
                "#abbcda"
            ],
            "path": "https://w.wallhaven.cc/full/r2/wallhaven-r2l131.jpg",
            "thumbs": {
                "large": "https://th.wallhaven.cc/lg/r2/r2l131.jpg",
                "original": "https://th.wallhaven.cc/orig/r2/r2l131.jpg",
                "small": "https://th.wallhaven.cc/small/r2/r2l131.jpg"
            }
        },
        {
            "id": "ympo77",
            "url": "https://wallhaven.cc/w/ympo77",
            "short_url": "https://whvn.cc/ympo77",
            "views": 107,
            "favorites": 1,
            "source": "",
            "purity": "sfw",
            "category": "anime",
            "dimension_x": 2560,
            "dimension_y": 1440,
            "resolution": "2560x1440",
            "ratio": "1.78",
            "file_size": 600121,
            "file_type": "image/jpeg",
            "created_at": "2020-06-19 06:13:10",
            "colors": [
                "#424153",
                "#999999",
                "#000000",
                "#cc6633",
                "#996633"
            ],
            "path": "https://w.wallhaven.cc/full/ym/wallhaven-ympo77.jpg",
            "thumbs": {
                "large": "https://th.wallhaven.cc/lg/ym/ympo77.jpg",
                "original": "https://th.wallhaven.cc/orig/ym/ympo77.jpg",
                "small": "https://th.wallhaven.cc/small/ym/ympo77.jpg"
            }
        }
    ],
    "meta": {
        "current_page": 1,
        "last_page": 13159,
        "per_page": 24,
        "total": 315796,
        "query": null,
        "seed": null
    }
}
